Date,"Budownictwo :  Mieszkania oddane do użytkowania , szt.","Short-Term Labour Market Statistics, Canada, Active population, Aged 15-24, Females, Level, rate or quantity series, Monthly",Industrial Production: Nondurable Goods: Dairy product,"All Employees: Local Government in Wenatchee, WA (MSA)",Revenue from retail sales of electricity : South Atlantic (total) : industrial : monthly,Registered Unemployment Rate for Belgium,All Employees: Accommodation in Colorado,"Total Natural Gas Supply, Monthly","All Employees: Retail Trade: General Merchandise Stores in Oklahoma City, OK (MSA)","Harmonized Index of Consumer Prices: Gardens, Plants, and Flowers for Portugal","All Employees: Retail Trade: Sporting Goods, Hobby, Book, and Music Stores","All Employees: Goods Producing in Hanford-Corcoran, CA (MSA)",Harmonized Index of Consumer Prices: Accommodation Services for Spain,Revenue from retail sales of electricity : Louisiana : commercial : monthly,"All Employees: Retail Trade in Laredo, TX (MSA)",All Employees: Non-Durable Goods: Fruit and Vegetable Preserving and Specialty Food Manufacturing in Washington,Net generation : all fuels : Oregon : all sectors : monthly,Civilian Labor Force in South Dakota,"All Employees: Leisure and Hospitality: Arts, Entertainment, and Recreation in Bakersfield, CA (MSA)",Revenue from retail sales of electricity : Alaska : residential : monthly,All Employees: Retail Trade: General Merchandise Stores in Illinois,"Liquefied Petroleum Gas Refinery Input, Monthly","Washington Propane All Sales/Deliveries by Prime Supplier, Monthly","Harmonized Index of Consumer Prices: Gardens, Plants, and Flowers for Bulgaria","Idaho Propane All Sales/Deliveries by Prime Supplier, Monthly",Revenue from retail sales of electricity : Alabama : industrial : monthly,All Employees: Local Government Excluding Educational Services in Vermont,All Employees: Professional and Business Services: Accounting and Bookkeeping Services,Retail Trade: Electronics and Appliance Stores,"Harmonized Index of Consumer Prices: Gardens, Plants, and Flowers for Latvia",Retail sales of electricity : Alaska : all sectors : monthly
2002-12-31,14748,"1292,3","85,7282",6,"582,13603","11,7","40,2","80,886920323","13,4","88,32","638,6","4,7","76,33","103,72203","12,3","9,7","3887,266",416451,"1,6","21,9838","135,2","0,344","430,2","79,38",78,"90,49388","7,1","759,3",11316,"76,33","492,18555"
2003-01-31,9607,"1271,7","88,3632",6,"624,0631","11,9","39,7","89,885699258","11,9","88,84","593,8","4,6","75,44","113,07357","11,6","8,7","4454,978",413063,"1,6","24,68592","119,1","0,304","440,9","85,57","86,2","104,36529","6,6","913,8",6512,"76,39","540,8805"
2003-02-28,9554,"1284,5","92,974",6,"610,33199","11,8","39,5","86,567969429","11,7","89,23",576,"4,7","75,67","104,15106","11,3","8,9","4020,326",415711,"1,6","21,51821","115,4","0,265",434,"89,31","70,1","103,96206","6,6","982,1",6010,"76,65","475,38923"
2003-03-31,8492,"1285,2","95,0243","6,1","626,38834","11,7","39,4","67,10008171","11,8","90,46","573,2","4,6","76,6","118,66718","11,3","9,1","4508,851",418405,"1,7","19,8558","115,4","0,197",450,"92,92","73,1","99,6016","6,7","935,2",6350,"77,75","460,58553"
2003-04-30,9573,"1290,8","97,9623","6,2","637,07408","11,6","37,7","56,689678733",12,"90,51","569,3","4,7","81,78","121,65494","11,2",10,"4068,724",419848,"1,8","18,9066","115,8","0,175","560,1","80,52","61,2","114,24675","6,5","911,1",5868,"77,91","445,36884"
2003-05-31,10524,"1407,2","96,2836","6,2","640,6371","11,4","36,8","47,904059903","12,1","90,15","570,7","4,7","79,3","138,43148","11,4","10,8","3666,603",422974,2,"17,06004","116,2","0,176","350,4","75,13","48,5","110,86442","6,7","773,5",6541,"78,23","438,17776"
2003-06-30,18585,"1459,3","95,2949","6,3","693,47563","11,6","41,5","45,068122867","12,2","88,06","569,2","4,8","81,84","152,21722","11,3","11,9","4177,775",431173,"1,9","16,44795","117,3","0,179","280,1","65,77","51,4","122,78289","7,2","750,6",6607,"79,59","418,3761"
2003-07-31,43492,"1571,4","89,9586","6,1","727,70594",13,"43,3","49,044230065","11,9","88,29","570,6","5,7","89,88","159,69901","11,3","12,3","3990,837",433330,2,"17,23047","116,5","0,186","282,4","64,61",42,"122,52251","7,7","739,7",6791,"77,33","432,2715"
2003-08-31,6458,"1536,5","85,1767","5,9","777,30646","13,3","43,1","51,428352968",12,"91,13","577,2","6,2","100,57","164,4175","11,4","12,8","3840,253",429725,"1,9","17,02166","117,5","0,194","298,1","65,62","56,8","133,09468","7,5","744,3",7380,"77,18","442,98581"
2003-09-30,8174,"1323,8","83,4089","5,9","702,08289","13,2","39,7","47,229436067","12,2","92,04","585,1",6,"85,75","167,86721","11,3","13,7","3811,775",421358,"1,9","17,56691","118,8","0,212",356,"71,24","74,2","120,83086","6,8","743,1",6755,"78,53","440,16756"
2003-10-31,9548,"1315,6","82,9972","6,1","668,53858","12,9","36,8","51,687229871","12,6","94,07","587,9","5,1","80,9","150,14371","11,3","12,6","3911,898",424658,"1,9","19,52322","123,4","0,249","350,3","74,56","65,6","108,00851","6,8","746,6",6900,"78,63","452,74218"
2003-11-30,9214,"1314,8","82,7078","6,2","630,10633","12,5","35,9","62,9754663","13,3","94,3","607,9","4,7","77,54","119,10108","11,6","10,8","4084,677",424626,"1,8","22,28863","130,7","0,295","445,2","78,09","79,3","106,92993","6,9",753,8282,"79,64","491,24501"
2003-12-31,19465,"1319,4","84,7796","6,1","611,63054","12,7","38,4","76,824456419","13,7","94,72",636,"4,7","79,14","118,29303","11,9",10,"4429,442",421541,"1,7","25,9596","135,4","0,307",469,"82,95","95,4","107,9085","7,1","790,3",12446,"80,86","525,49198"
2004-01-31,11187,"1278,6","84,2958","6,1","624,81931","12,9","38,3","88,457281032","12,5","95,94","588,2","4,5","78,53","121,32825","11,3","8,9","4925,45189",417645,"1,6","27,30606","120,5","0,294","455,7","85,71","107,7","110,50965","6,6","899,4",7131,"81,38","574,05769"
2004-02-29,7557,"1278,2","87,571","6,1","613,18437","12,8","38,4","81,959164897","12,4","95,33","571,4","4,7","78,92","119,84441","11,2","8,9","4490,74486",420396,"1,9","23,70587","116,7","0,279",382,"89,59","88,2","108,24355","6,6",943,6917,"82,43","508,18698"
2004-03-31,9492,"1288,8","89,8133","6,2","645,50195","12,7","38,5","63,717337","12,4","97,01","571,4","4,6","79,52","122,95483","11,1","8,9","4661,65839",423284,"1,9","21,42672","117,4","0,223","400,3","91,96","81,6","117,06953","6,7","926,5",7188,"83,32","476,43956"
2004-04-30,8337,"1283,2","93,1741","6,3","647,05212","12,4","37,2","53,753483967","12,3","97,14","565,7","4,5","84,26","122,75677","11,1","10,1","4042,13179",424937,"1,9","21,34026","117,6","0,202","351,1","81,69","49,1","127,42341","6,6","904,8",6614,"82,73","483,37079"
2004-05-31,7054,"1417,9","93,733","6,3","713,53873","12,3","36,4","46,988895452","12,3","97,3","571,8","4,7","81,73","131,68217","11,2","10,4","3945,82149",428454,2,"18,90038","118,8","0,2","233,3","76,71","42,1","130,03266","6,8","759,2",7086,"80,47","443,65906"
2004-06-30,6602,"1478,7","94,3931","6,5","700,8117","12,4","41,7","47,082092933",12,"97,21","569,6","4,9","83,99","153,52183","11,1","10,3","3831,6315",436564,2,"17,86621","120,2","0,187","272,2","68,59","47,8","131,07829","7,2","750,5",7344,"81,9","426,6197"
2004-07-31,7474,"1592,6","89,5937","6,2","785,68359","12,8","43,6","49,248250387",12,"97,49","566,2",6,"92,36","165,29407","11,1","11,3","3726,99954",437530,"2,1","17,89031","118,8","0,185","269,7","63,03","39,7","143,61427","7,6","742,4",7387,"82,69","449,44645"
2004-08-31,7191,1523,"86,7094",6,"809,43559","13,2","43,4","48,952573452",12,"97,67","577,9","6,1","102,56","176,62496","11,2","10,9","3789,86996",433687,"2,1","17,98885","119,4","0,187","289,8","63,76","53,5","142,14038","7,7","736,6",7753,"82,38","456,30661"
2004-09-30,7138,"1327,5","84,678",6,"727,15783","13,2",40,"47,311749967","12,1","96,08","592,6","6,1","87,51","172,01802","11,1","12,1","4151,77406",426505,"2,1","19,007","119,9","0,214","372,3","71,27","71,5","119,80497",7,"730,6",7250,"82,5","459,98377"
2004-10-31,9534,"1333,8","84,6413","6,2","683,81785","13,2",37,"50,667394774","12,3","96,26",595,"5,1","82,94","155,42595","11,4","12,1","4244,45268",429695,"1,9","21,02944","122,8","0,273",335,73,"74,5","126,27984",7,"743,5",7231,"83,17","472,60034"
2004-11-30,9612,"1328,1","83,0316","6,3","680,99714","12,8","36,1","62,058725833","13,3","96,5",619,"4,6","79,96","133,25426","11,8",10,"4491,1689",428249,2,"23,21131","131,4","0,307",391,"76,49","80,5","111,42162","7,1","738,8",8877,"83,71","495,05528"
2004-12-31,16939,1318,"83,6603","6,3","677,97983","12,8","38,8","79,658828226","13,7","95,96","641,9","4,8","81,73","135,59249",12,"9,4","5079,57314",425023,"1,9","26,78859","135,6","0,31","398,2","81,61","105,5","109,15584",7,"795,5",13118,"83,71","542,75777"
2005-01-31,11971,"1290,7","86,5378","6,2","679,53433","12,7","38,6","83,970395161","12,6","101,72","599,2","4,5","80,68","130,44063","11,3","8,8","4899,40933",421452,"1,8","28,43531","125,2","0,274548","480,2","87,58","133,9","109,48531","6,6","920,9",7534,"86,15","567,83673"
2005-02-28,7561,1289,"91,1642","6,2","650,46358","12,7",39,"76,401742","12,5","101,27","577,8","4,6","81,18","128,24433","11,2","8,5","4409,78544",424430,"1,9","25,04322","119,6","0,271964",418,"95,23",98,"106,30046","6,7","966,9",7463,"89,91","520,65853"
2005-03-31,6968,"1279,5","94,5371","6,4","696,20795","12,6","39,3","70,688576839","12,5","104,6","577,7","4,7","84,37","122,94401","11,3","8,7","4587,26621",427234,"1,9","23,01916",120,"0,208419","460,1","98,79","83,1","118,67312","6,9","950,9",7803,"89,78","490,42653"
2005-04-30,8926,"1297,7","96,7492","6,5","690,40661","12,3","37,9","53,1142172","12,6","89,25","577,6","4,7","82,83","122,64336","11,3","9,8","4167,2268",428538,"2,1","21,12539","121,4","0,190166",428,"83,6","70,4","120,27771","6,8","938,7",7133,"87,84","469,23825"
2005-05-31,7287,"1438,7","98,1615","6,5","723,53015","12,2",37,"47,178345581","12,6","85,73","582,6","4,8","82,94","132,81813","11,4","10,4","3804,86285",431106,"2,2","19,93322",122,"0,194645","259,5","79,93","63,8","136,91935",7,"788,5",7542,"86,19","438,65294"
2005-06-30,6718,"1463,9","101,8703","6,6","773,78323","12,3",42,"49,220256867","12,4","77,73","583,6","5,1","85,75","169,38249","11,4","10,4","3719,91357",438953,"2,3","18,83683","121,6","0,210033","304,5","71,49","65,4","147,41289","7,4","787,4",7806,"84,55","437,96312"
2005-07-31,8838,"1579,5","96,3143","6,3","844,18755","13,4","43,9","52,407398774","12,3","79,74","584,3","6,1","95,06","190,92597","11,6","11,5","3767,72946",440541,"2,3","19,40445","122,3","0,200612",265,"68,84","54,8","148,68668","7,7","784,8",7795,"81,77","461,70201"
2005-08-31,9594,"1538,3","93,104",6,"903,80992","13,5","43,8","52,542880742","12,5","83,15","594,3","6,4","104,93","192,1284","11,8","11,1","3620,03784",436286,"2,2","19,96648",124,"0,198225","334,7",70,"74,7","157,8032","8,1","789,3",8373,"81,6","455,34704"
2005-09-30,9519,"1337,2","89,2933","6,1","847,36641","13,5","40,8","45,444857933","12,8","83,2","596,1","6,4","89,17","159,27664","11,5","12,5","3762,0585",429003,"2,3","19,88482","123,8","0,258033","352,1","75,46",90,"159,99593","7,2","790,5",7814,"81,25","480,84249"
2005-10-31,10095,"1352,3","87,3909","6,3","793,02855","13,2","37,9","47,266023129","12,9","94,59","607,1","5,5","84,7","184,21223","11,6","12,7","4103,65778",431288,"2,1","21,97198","125,4","0,327548","315,7","78,77","82,4","145,66835","7,3","797,6",7785,"83,66","493,75807"
2005-11-30,10048,"1348,8","86,6725","6,4","745,02501","12,8","37,4","59,2331441","13,9","91,59","635,1","5,1","81,89","172,65048","12,2","10,2","4021,49992",430166,"2,1","26,46366","134,1","0,354733","366,5","84,39","95,2","143,82831","7,2","811,5",9548,"84,43","531,22302"
2005-12-31,16541,1352,"88,0662","6,3","775,25471","12,9","40,3","79,130588032",14,"96,41","659,1","5,2","84,32","151,01334","12,6","9,4","4461,55483",428280,"2,1","30,06748","138,5","0,351903","494,2","88,62","128,1","146,1427",7,"864,2",13865,"88,25","564,92227"
2006-01-31,10192,"1322,2","90,7314","6,3","628,52762","12,5","40,5","68,278382548","12,8","95,78","614,8","4,8","82,9","148,56294","11,7","8,7","4882,31365",423075,2,"30,61981","127,2","0,376548","537,9","92,48","206,3","118,2822","6,8","961,8",8384,"89,04","587,364"
2006-02-28,8754,"1320,8","95,9972","6,3","665,06082","12,4","40,5","76,642298679","12,7","100,26","596,3","4,9","82,89","157,891","11,6","8,8","4683,38596",426069,"2,2","28,4763","122,6","0,319535","598,2","97,2",208,"123,87143","6,9","1005,5",7854,"92,74","554,84579"
2006-03-31,9338,"1331,2","98,6023","6,5","660,19588","12,2","40,8","65,999306194","12,7","93,86","592,8","4,7","82,88","144,84073","11,7","8,8","4791,39163",428948,"2,1","27,69279",124,"0,258419","606,3","97,58",176,"130,9553","6,9","996,4",8253,"93,93","522,26355"
2006-04-30,7319,"1319,7","100,2222","6,5","671,52213","12,1","38,7","50,958411767","12,8","90,74","589,6","4,7","89,71","141,77275","11,8","8,8","4448,56431",429955,"2,3","25,23923","122,6","0,263533","433,2","83,77","119,8","143,53087","6,8",983,7408,"91,81","514,34858"
2006-05-31,6603,"1468,6","99,3597","6,5","725,53718",12,"38,5","47,536886452","12,8","87,87","590,7","5,1","86,42","148,83679","11,9",9,"4551,38009",433955,"2,4","22,80511",124,"0,280193","415,8","82,14","98,9","153,33749",7,"831,3",8022,"89,46","458,16646"
2006-06-30,8155,"1502,8","100,091","6,8","753,35526",12,"43,4","50,322751833",13,"83,3","590,1","5,1","89,34","175,63718","11,9","10,3","4331,78788",443272,"2,5","22,40132","126,1","0,280166","375,8","74,01","95,7","174,37181","7,4","830,1",8154,"87,42","470,90915"
2006-07-31,9545,"1621,2","93,2041","6,5","798,39572",13,"45,1","55,651104",13,"83,51","583,2",6,"98,81","186,10198","12,1","11,3","4466,37473",445355,"2,5","23,31744","126,3","0,259451",346,"70,77","86,4","177,40002","7,7","816,8",8099,"85,02","472,69605"
2006-08-31,8508,"1571,4","90,187","6,2","847,49006","13,1","44,8","54,865051548","13,2","84,4","597,5","6,5","109,27","194,59078","12,5","11,5","3848,94651",442415,"2,4","23,56131","127,3","0,285096","370,6","70,23","104,9","194,22501","7,9","811,8",8676,"84,17","483,53149"
2006-09-30,8167,"1360,2","88,0091","6,4","737,58054",13,"41,9","48,8094093","13,4","86,26","595,3","6,6","92,99","196,59359","12,3","12,6","3975,50788",434824,"2,3","23,2631","126,6","0,318033","457,4","78,41","118,2","161,39537","7,1","824,2",8025,"85,42","489,09607"
2006-10-31,11241,"1366,6","86,3464","6,6","740,59652","12,3",39,"56,227398548","13,6","94,21","602,8","5,3","88,42","190,79464","12,5","12,1","4212,47989",438534,"2,1","23,98678","131,1","0,343322","439,5","80,6","126,5","141,41785","7,1","827,6",7746,"87,06","493,81628"
2006-11-30,11541,"1353,9","85,7078","6,7","688,46777","11,9","38,7","62,2077591","13,9","92,52","647,6","5,1","85,21","155,42157","12,9","10,6","3945,05473",437922,"2,2","29,06931",140,"0,379033","502,4","87,04","192,8","128,55352","7,1","861,3",10007,"88,36","547,96779"
2006-12-31,15990,"1353,9","88,87","6,7","658,90749","11,7","41,5","73,400270677","14,3","99,32",671,"4,9","86,88","142,66905","13,2","9,5","5203,50786",435765,"2,2","33,94549","144,3","0,437032","619,5","88,83","254,4","130,70513",7,"918,4",14849,"91,05","587,28579"
2007-01-31,10186,"1326,4","92,2473","6,6","668,69009","11,8","40,9","83,984859097","13,7","99,13","631,8","4,8","86,69","156,95213","12,6","9,3","5613,34291",431598,"2,2","34,84557","135,3","0,394806",649,"93,12","280,5","138,06578","6,9","1016,4",8397,"92,81","609,0451"
2007-02-28,8717,"1344,4","95,2899","6,6","665,13627","11,5","41,1","89,714976429","13,4","128,39","608,9","4,7","87,3","155,03783","12,4","9,2","4554,74843",435359,"2,2","29,00414","128,4","0,319071","589,3","102,26","227,9","137,99639",7,"1067,6",8022,"94,35","554,38369"
2007-03-31,8076,"1354,8","98,2527","6,7","662,67634","11,2","41,4","64,863178065","14,1","103,07","603,9",5,"87,64","152,69748","12,6","9,3","5071,08594",438251,"2,3","30,72331","130,4","0,28458","518,2","105,99","147,3","141,78044","7,1","1040,3",8247,"97,46","555,84085"
2007-04-30,8759,"1340,2","102,7208","6,8","692,12693",11,"40,1","58,9293272","13,3","97,63","603,1",5,"95,41","160,31597","12,8","9,2","4416,1766",439552,"2,4","25,95172","128,7","0,267933","522,5","92,03","105,1","151,36157","6,9","1022,5",7413,"97,63","526,08323"
2007-05-31,8408,1478,"100,7927","6,8","718,19829","10,7","39,3","48,249005","13,4","91,06","607,3","5,2","91,46","171,17047","12,9","9,5","4252,86639",442958,"2,5","22,50929","130,5","0,274548","410,9","87,91","93,7","164,01844",7,"869,2",8146,"95,74","482,26751"
2007-06-30,8682,1514,"102,5394",7,"766,01603","10,5","43,7","50,706316167","13,4","86,46",604,"5,6","95,13","182,79484","12,7","10,2","4421,45162",451142,"2,5","21,8936","130,4","0,265633","357,7","80,86","86,6","172,07567","7,5","865,9",8141,"95,54","476,17843"
2007-07-31,11527,"1625,7","99,8508","6,7","795,19219","11,7","45,4","53,436668355","13,8","85,32",606,"6,7","104,78","195,52767","12,7","11,5","4244,88274",453320,"2,5","22,78513","130,8","0,278",334,"78,8","91,7","171,90358","7,7","860,7",8160,"94,12","492,04738"
2007-08-31,11559,"1586,6","95,0875","6,5","901,37309","11,9","45,2","60,375872387","13,7","86,26","617,6","6,8","114,92","205,49402",13,"11,8","4088,75674",449146,"2,5","23,5092","129,9","0,273516","354,4","80,46","106,4","196,00237","7,8","859,6",8880,"93,84","510,67588"
2007-09-30,11038,"1400,4","92,6803","6,4","760,85935","11,4","42,3","53,132539","13,7","88,99","626,1","6,8","99,07","198,08029","12,9","12,9","4122,38053",441303,"2,5","22,76236","130,2","0,330966","395,6","86,74","121,2","163,43989","6,9","872,9",7979,"94,72","496,46297"
2007-10-31,15983,"1389,5","92,2078","6,8","780,38032","11,1","39,4","54,176793161","13,8","92,25","626,2","5,8","92,83","192,90944","12,9","12,4","4256,70299",444282,"2,5","25,79888","132,5","0,36358","548,6","89,03",162,"162,84883",7,"881,5",8024,"96,57","495,54176"
2007-11-30,13548,"1394,5","90,7728","6,9","732,28741","10,7","39,5","67,322510733","14,8","94,11","664,8","5,3","89,25","160,01489","13,6","10,5","4579,86113",443157,"2,4","27,82179","141,9","0,4462","586,8","93,65","179,5","153,91926","6,9","898,2",10592,"98,28","541,15466"
2007-12-31,17215,1379,"92,0211","6,8","699,9387","10,8","42,2","83,030202935","14,8","101,53","679,6","5,3","90,69","157,78796","13,9","9,7","5455,53793",439925,"2,5","33,36801",146,"0,438193","602,7","94,33","221,8","153,04078",7,"976,2",14598,"99,79","586,92854"
2008-01-31,14640,"1351,2","94,3434","6,6","707,08079","10,9","41,8","90,626002645",14,"99,54","648,8","5,3","89,73","157,78976","13,3","9,5","5844,51369",436784,"2,3","36,4707","136,9","0,406516","725,1","98,4","259,5","160,47007","6,9","1066,8",8410,"101,07","622,15228"
2008-02-29,10977,1379,"97,0644","6,6","692,10726","10,7","42,1","84,453567759","13,7","136,08","619,8","5,4","90,47","155,22784","13,2","9,5","5222,46495",440148,"2,4","33,35921","129,8","0,354482","600,1","106,87","247,7","147,16757","6,9","1099,2",8440,"102,11","590,27895"
2008-03-31,9798,"1367,8","100,6907","6,8","723,82634","10,3","42,2","71,595850097","13,9","104,93","606,7","5,4","95,87","160,16668","13,2","9,7","5603,17628",442903,"2,4","30,46363","130,8","0,311","653,3","107,89","151,7","144,81472",7,"1064,1",8255,"106,92","542,68639"
2008-04-30,13717,1385,"102,1314","6,9","735,52908","10,3","41,1","57,3085737","13,6","90,6","595,7","5,5","95,14","167,92458","13,1","9,6","4791,3061",443706,"2,6","29,42178","129,1","0,2908","758,2","98,25",140,"155,98829","6,9","1054,2",7737,"104,55","509,90923"
2008-05-31,9724,"1502,2","101,7103","6,9","795,61949","9,9","40,5","49,611820032","13,5","92,97","603,4",6,"95,96","186,09548",13,"9,8","4919,55259",446653,"2,6","27,03346","128,7","0,29","453,4","96,8","109,2","169,95381",7,"893,2",8589,"103,32","488,30423"
2008-06-30,10427,"1541,1","104,0516","7,1","886,24128",10,"44,4","52,084019667","13,5","88,57","602,6","6,1","99,53","215,06199","13,1","10,5","4929,17585",454479,"2,7","23,96871","130,3","0,2911","398,7","87,85","93,1","210,56473","7,5","885,7",8384,"101,22","464,75492"
2008-07-31,14630,"1630,1","97,8176","6,8","900,60806","11,1","46,3","54,363303194","13,6","86,91","597,4","7,5","110,53","241,97628",13,"11,3","4514,48999",456126,"2,6","26,12764","129,8","0,279677","369,5","84,53","81,8","213,64914","7,9","871,3",8555,"98,44","472,88818"
2008-08-31,11184,"1597,5","94,6735","6,6","911,15578","11,2","46,2","53,339082032","13,6","86,78","620,5","7,8","121,23","260,36109","13,2","12,1","4200,29174",452960,"2,5","25,36957","129,9","0,26258","408,6","85,71","85,3","208,63189","7,9","870,7",8771,"98,25","490,10523"
2008-09-30,12387,"1400,8","91,1957","6,6","843,66935","10,9","43,1","48,160853667","13,6","91,05","623,3","7,7","104,09","228,42695",13,"13,3","4226,48308",445047,"2,4","25,35848","129,4","0,280633","488,2","89,8","118,3","196,60969","7,2","875,8",7827,"98,76","498,29597"
2008-10-31,15792,1414,"92,0816","6,8","821,74408","10,6","39,9","54,410213581","13,6","95,13","630,5",7,"97,24","204,9186",13,"13,2","4498,78745",448776,"2,3","27,82361","132,7","0,390032","517,2","92,68","131,4","194,20009","7,1","882,9",7562,"99,38","517,25789"
2008-11-30,12036,"1395,6","93,0616","6,9","766,55804","10,5","39,1","65,827142867","14,4","96,95","650,3",6,"91,95","182,1237","13,3","11,5","4617,85636",447165,"2,3","31,80099","139,4","0,4104","498,8","95,77","133,5","181,08965","7,2","894,9",9708,"99,9","547,75214"
2008-12-31,29877,1391,"93,3563","6,8","673,7898","10,8","41,3","81,667386419","14,5","104,46","663,8","5,5","91,21","162,16285","13,4","9,9","5350,33945",444659,"2,2","35,39712","142,3","0,434193","653,9","97,52","213,9","155,28284","7,2","953,6",13079,"101,72","581,55858"
2009-01-31,22096,"1339,3","93,5484","6,7","746,69863","11,1","40,4","88,728367452","13,5","106,39","619,2","4,7","90,82","160,70681","12,7","9,8","5814,53836",441244,"2,3","43,20736","130,9","0,399903","765,4","100,22","250,7","149,69191",7,1024,8120,"101,08","622,89115"
2009-02-28,9737,"1343,1","96,1313","6,7","690,06978","11,2",40,"79,564562143","13,1","112,66","586,9","4,5","90,48","150,19386","12,3","9,8","4713,3521",444140,"2,4","34,03176","126,4","0,329392","600,6","104,14","183,5","138,21967","7,1",1064,7901,"101,24","556,03016"
2009-03-31,9665,"1347,4","98,9577","6,9","697,53939","11,3","39,8","68,112889516","13,2","95,93","579,3","4,5","91,08","145,59976","12,2","9,8","5319,32038",446921,"2,5","33,11556","126,3","0,297741","599,9","111,09","155,9","130,12761","7,1","1040,9",7368,"101,84","532,85974"
2009-04-30,12893,"1349,1","100,7892","6,9","688,2885","11,3","38,4","56,315632767","13,2","92,39","573,4","4,5","97,88","139,86887","12,1","9,6","4596,53239",446138,"2,6","28,68929","128,2","0,272133","431,2","100,85","113,8","133,8216","7,1","1021,1",6731,"98,19","509,11918"
2009-05-31,9909,"1487,7","101,9558","6,9","737,96436",11,"37,7","47,583267645","13,3","89,26","575,7","4,9","95,25","147,15698",12,10,"4246,22169",448345,"2,7","26,7049","128,9","0,270838","316,4","98,27","87,8","141,72175","7,2",862,7141,"96,8","481,76921"
2009-06-30,11847,"1531,5","102,6178","7,1","787,98651","11,3","41,3","51,180011533","13,1","87,39",572,"4,7","97,86","143,41876",12,"10,6","4624,84922",455028,"2,7","25,24029","129,3","0,2789","320,7","92,32","84,6","160,76227","7,5","844,6",7388,"94,61","470,70977"
2009-07-31,15472,"1638,2","97,3138","6,7","758,32979","12,3","43,2","52,975242581",13,"85,37","567,8",6,"106,84","169,45702","11,9","11,9","4149,24475",455735,"2,5","26,30304","127,9","0,257741","294,8","89,31","67,9","158,27401","7,7","840,6",7342,"89,31","483,18069"
2009-08-31,11568,"1588,3","93,8406","6,3","832,51558","12,5","43,3","56,080955903","12,9","87,12","585,1","6,4","119,67","163,89065","12,1","13,3","4199,29219",449651,"2,4","24,83859","127,6","0,254612","321,1","89,36","74,1","167,64525","7,8","836,4",7652,"88,09","491,70948"
2009-09-30,11654,"1361,4","91,2272","6,5","753,96441","12,2","40,5","52,650842167","13,1","88,21","595,9","6,5","100,84","158,90777","11,9","13,8","4466,52852",441203,"2,5","25,41409","127,7","0,308133",467,"93,01","107,4","153,25492","7,1","832,4",7060,"86,1","481,4488"
2009-10-31,15512,"1339,6","89,9294","6,6","747,66814","11,9","37,9","56,704443935","12,9","91,51","578,8","5,2","95,04","152,18057","12,1","13,1","4534,61024",443399,"2,4","27,88024","128,1","0,365225","522,2","94,3","125,4","128,56976","7,2","846,2",6893,"88,66","507,57267"
2009-11-30,13569,"1369,3","90,6599","6,7","724,26173","11,7","37,2","61,380633833","13,8","93,46","608,2","5,2","90,35","128,82735","12,4","10,9","4777,85456",441857,"2,3","31,3801",137,"0,431833","479,1","94,9","153,7","132,81106","6,9","847,8",9265,"90,02","538,87381"
2009-12-31,16080,"1364,9","92,0783","6,6","717,51103","12,1","39,1","85,939935194","13,7","99,34","628,3",5,"89,97","132,71842","12,6","9,7","5248,51205",438455,"2,3","36,1387","139,1","0,416548","677,5","94,89","225,2","160,1034","7,1","910,4",12503,"92,94","594,00632"
2010-01-31,12791,"1344,6","93,9099","6,5","678,40464","12,2","38,6","92,12916871","12,8","100,73","591,7","4,4","89,83","156,18348","11,9","9,4","4958,51128",434007,"2,2","35,53305","128,8","0,365645","511,9","96,56","173,9","139,01791",7,"1008,3",7420,"94,22","597,8027"
2010-02-28,9864,"1346,8","97,5396","6,5","688,06598","12,1","38,7","88,288672571","12,6","106,9","574,4","4,4","91,63","155,91312","11,7","9,4","4483,35961",436644,"2,3","30,24317","125,5","0,282214","511,6","99,36","144,6","133,00125",7,"1041,8",7665,"94,46","534,17688"
2010-03-31,11392,"1356,1","101,3811","6,7","705,75316","11,8","38,7","65,622024839","12,9","103,08","562,7","4,4","92,68","162,73795","11,8","9,4","4930,56335",439974,"2,3","30,63496","126,4","0,263742","598,8","103,63","117,5","138,02689",7,"1005,2",7591,"95,83","548,42759"
2010-04-30,10805,"1376,3","103,5609","6,7","717,08835","11,6","37,8","53,005987433","12,7","98,02","561,1","4,4","95,68","149,60203","11,8","9,5","4353,67768",439611,"2,4","26,8095","125,9","0,241633","524,8","95,94","100,7","153,93204","6,9","993,9",7000,"92,92","501,56775"
2010-05-31,8986,"1492,2","103,6722","6,7","789,52388","11,3","36,8","51,561856194","12,8","94,68","560,9","4,6","97,06","156,99752","11,9","10,1","3851,40827",441874,"2,5","25,55578","127,1","0,240967","373,1","96,17","80,4","170,03214",7,"823,6",7456,"92,2","477,74703"
2010-06-30,9941,1537,"104,6184","6,8","832,23695","11,4","41,3","52,943288233",13,"92,03","562,2","4,7","96,85","181,04387","11,8","10,6","4889,49291",449100,"2,5","23,4083","129,1","0,2273","356,4","90,46","82,3","177,4251","7,5","809,2",7810,"91,81","466,32686"
2010-07-31,11662,"1611,5","99,1637","6,6","873,73006","12,6","43,1","58,819010097","13,1","89,25","557,8","5,8","97,65","198,29834","11,8","11,6","4458,56908",450195,"2,4","24,98395","129,5","0,227936","312,4","88,92","67,8","182,63197","7,8","807,7",7784,"88,73","487,39451"
2010-08-31,10549,1569,"95,6269","6,2","902,56603","12,7","43,3","60,107288774",13,"89,66","574,4","6,1","99,45","204,55659",12,"12,1","4246,03263",446258,"2,3","25,44819","129,1","0,231258","360,9","88,64","82,9","193,90624","7,8","813,3",7964,"87,37","502,30834"
2010-09-30,11684,"1354,9","95,2224","6,3","782,81777","12,3","40,3","53,8792791","12,8","92,68","574,8",6,"99,05","204,39793","11,9","13,8","4340,88019",438059,"2,3","22,7743","127,6","0,2635","390,5","90,44","108,9","173,83831",7,"796,1",7502,"91,23","483,97104"
2010-10-31,11740,"1360,6","92,6907","6,5","753,41486","11,8","38,1","55,072617323",13,"95,6",578,"5,3","96,7","187,15165",12,"13,1","4538,60963",441691,"2,2","26,57922","130,3","0,327129","419,5","93,97","88,4","166,32665","7,1","802,3",7194,"94,71","505,7446"
2010-11-30,12218,"1334,6","93,4806","6,6","738,18934","11,5","37,6","67,8250777","13,8","98,44","614,1","4,8","92,83","154,95504","12,5",11,"4862,65504",440475,"2,2","30,7053","137,9","0,371966","611,3","95,97","145,7","149,54899","6,9","846,3",9311,"93,32","535,67637"
2010-12-31,14203,"1345,9","94,9474","6,6","758,71766","11,6",40,"89,901615774","14,1","101,44","636,5","4,8","92,45","145,77809","12,9","10,2","5213,23949",438173,"2,1","37,66448","141,8","0,400064","739,8","97,89","178,3","167,36551",7,"890,2",12699,"94,17","605,89437"
2011-01-31,10282,"1323,6","95,1729","6,5","701,18059","11,7","40,2","93,968027516","13,2","104,48","591,3","4,8","90,74","150,02397","12,2","9,6","5723,76208",433672,"2,1","39,06885","131,4","0,381968","661,9","97,85",182,"166,15785","6,9","972,7",7384,"95,43","618,90158"
2011-02-28,8047,"1341,6","97,5144","6,5","699,47192","11,5","40,2","86,854302214","12,9","111,04",568,"4,8","92,2","151,37048","12,1","9,7","5083,30794",436424,"2,2","32,47204","127,3","0,356107",556,"101,97","154,6","149,66023","6,9","1014,1",7600,"98,29","553,3496"
2011-03-31,9171,1353,"100,2768","6,7","732,06241","11,3","40,4","72,090335484","13,1","105,7","562,6","4,5","93,99","153,70169","12,1","9,7","5486,37197",439187,"2,2","34,14458","127,2","0,290387","565,7","103,07","128,9","162,17565",7,"1013,7",8031,"98,56","561,59188"
2011-04-30,9473,"1343,7","102,4357","6,8","748,18205","11,1","39,2","60,281593533","13,2","100,76","559,8","4,6","98,12","155,51495","12,3","9,8","4921,7705",439232,"2,4","29,43378","128,1","0,266667","461,5","97,61","91,2","147,1369","7,1","1000,3",7174,"96,67","508,81309"
2011-05-31,8753,"1505,3","102,2423","6,8","805,12402","10,5",38,"53,997795129",13,98,"561,1","4,8","97,58","162,41221","12,2","10,1","4892,38435",441219,"2,5","26,82814","128,3","0,251",400,"97,43","75,7","162,66969","7,2","864,9",7492,"95,04","481,60913"
2011-06-30,8842,"1519,9","102,5007","6,9","832,06866","10,5","42,8","55,6172367","13,1","97,11","561,4","4,9","97,24","194,88084","12,4","10,5","5168,35001",448478,"2,5","25,31205","129,4","0,258533","393,5","93,14","64,4","204,75665","7,6","852,6",7736,"92,27","464,61511"
2011-07-31,10496,"1619,8","96,6839","6,6","892,63823","11,5",45,"60,444184548","13,1","97,79",568,"6,2","99,06","205,41956","12,4","11,3","4943,43911",449329,"2,4","27,90552",129,"0,252838","351,2","90,89","60,6","210,31404","7,9","832,6",7875,"90,2","474,85154"
2011-08-31,10901,"1568,9","94,6144","6,3","893,99868","11,7",45,"60,790114613","13,2","97,53","583,7","6,3","102,23","208,91164","12,5","12,8","4243,98569",445385,"2,4","27,53925","129,2","0,262","458,7","91,75","92,2","220,46366","7,9","825,5",8297,"87,83","495,03089"
2011-09-30,10874,1366,"92,8364","6,4","796,2373","11,4","42,4","53,976661933","13,1","98,36","582,9","6,4","99,86","202,20233","12,4","13,9","4510,54314",438158,"2,3","27,38655","128,2","0,3087","533,3","95,53","105,9","188,17159","7,2","822,1",7620,"90,48","485,06698"
2011-10-31,14188,"1358,8","91,8033","6,6","774,86789","11,1","39,1","58,248172742","13,3","99,25","575,7","5,3","97,13","179,33407","12,5","13,4","4390,54522",441197,"2,3","29,53109","131,9","0,348194",533,"95,81","97,4","167,93893","7,4","829,9",7752,"93,29","509,36119"
2011-11-30,13416,"1364,3","94,1365","6,7","729,04446","10,9","38,5","68,805001167","14,2","102,34","607,9","4,9","92,95","143,93257",13,"11,6","4934,80167",440525,"2,3","35,68843","141,9","0,430667",626,"97,32","128,9","156,91527","7,2","843,8",10049,"94,71","561,50102"
2011-12-31,16511,"1335,9","96,2472","6,6","712,16246","10,9","40,8","83,64461371","14,3","106,83","611,8",5,"92,83","142,70198","13,3","9,8","5395,90245",438400,"2,2","40,69493","145,3","0,393967","710,2","99,79","165,1","170,84436","7,3","914,3",12918,"96,23","604,84795"
2012-01-31,12468,1314,"99,6776","6,5","697,4879","11,2","40,4","88,883741871","13,3","111,9","569,1","4,8","89,78","147,41959","12,6","9,3","5728,10681",433668,"2,2","42,56234","133,4","0,352806","600,2","102,14","147,7","158,47915","7,1","1001,7",7649,"100,97","618,73233"
2012-02-29,11315,"1313,8","103,4888","6,5","715,98847","11,1","40,4","85,800205345","12,9","125,76","562,1","4,7","92,14","143,0076","12,3","9,1","5455,78965",436366,"2,2","37,86253","128,1","0,347518","614,3","103,69","133,7","157,03442","7,1","1046,3",8081,"98,18","595,16679"
2012-03-31,12509,"1331,5","106,5267","6,6","730,10028","10,9","40,9","67,912176161","12,9","110,48","559,9","4,6","93,06","143,92432","12,3","9,3","5832,48565",439263,"2,3","33,88682","127,9","0,279677","633,3","107,66",126,"168,38027","7,1","1022,3",8339,"99,75","556,74138"
2012-04-30,11085,"1350,7","107,4264","6,7","739,29246","10,7","39,6","64,256326233","13,1","106,2","563,3","4,6","98,98","144,44047","12,4","9,2","4982,93639",440421,"2,5","29,95885","127,6","0,279","421,3","100,73","72,7","164,24274","7,2",1006,7088,"97,07","515,78731"
2012-05-31,10032,"1473,8","105,6957","6,7","792,24286","10,5","39,1","59,976241419","13,1","101,18","572,4","4,8","97,93","153,79919","12,4","9,6","5140,06265",442785,"2,5","27,58654","128,3","0,262193","339,3","97,77","65,8","175,24572","7,2","861,9",7837,"93,66","480,61039"
2012-06-30,10434,"1500,7","104,705","6,9","800,61721","10,6","44,5","61,419889967","13,1","98,41","576,8","5,4","97,61","163,13413","12,6","10,3","4662,88008",450695,"2,6","26,75748","128,5","0,2938","368,8","95,57","78,3","198,47977","7,7","846,3",7871,"94,34","466,9367"
2012-07-31,11873,"1585,2","97,9689","6,6","859,56547","11,6","45,9","67,293373613",13,"97,43","574,8","6,2","100,14","177,6165","12,7","11,9","5180,4867",450855,"2,5","29,29607","129,1","0,288549","360,5","93,49",81,"204,73635","7,9","835,5",8055,"92,12","491,53117"
2012-08-31,12961,"1562,4","94,3022","6,2","833,38782","11,9","45,7","65,267746097","12,9","98,84","588,6","6,2","100,71","175,77871","12,7","12,7","4536,92087",446868,"2,4","28,56612","128,7","0,27571","335,5","92,41","103,7","205,48068","7,8","837,9",8337,"92,93","499,53195"
2012-09-30,12128,"1356,5","91,5052","6,3","770,14015","11,6","42,9","60,727159133","13,1","100,48","585,6","6,3","100,66","172,29991","12,6","13,1","4771,3753",440854,"2,3","26,07648","128,1","0,3249",421,"94,33","115,6","186,17149","7,3","833,6",7697,"92,97","487,93038"
2012-10-31,15425,"1357,7","93,4197","6,6","775,32206","11,4","40,1","62,406586387","13,3","101,78","583,4","5,2","98,05","164,27323","12,7","12,8","4529,32826",444020,"2,3","29,30643","131,7","0,424548","495,2","94,77","111,1","163,5043","7,4","842,6",7550,"94,99","510,98373"
2012-11-30,15562,"1351,7","95,5311","6,7","716,2881","11,2","39,7","74,1308188","13,9","103,29","623,2","4,7","92,4","147,37902","13,4","10,9","4598,70816",443429,"2,3","34,10909",142,"0,4458","547,6","95,56","133,1","155,53609","7,4","857,8",10275,"97,93","566,05737"
2012-12-31,17112,"1350,9","99,7527","6,6","698,25747","11,3",42,"81,827231903","14,3","109,42","626,6","4,8","90,94","146,78363","13,6","9,6","5513,64995",440083,"2,3","40,33496","143,5","0,448484","595,9","95,68","120,7","163,64516","7,4","914,9",13281,"97,94","626,40148"
2013-01-31,14059,1334,"99,9857","6,4","694,73424","11,5","41,4","93,011146419","13,5","110,13","596,1","4,9","88,71","165,65733","12,8","9,3","6167,90461",435314,"2,3","40,2023",131,"0,372742",687,"97,31","192,6","151,25824","7,1","989,3",8064,"97,73","613,73683"
2013-02-28,10940,"1354,5","104,0488","6,5","685,50611","11,4","41,7","91,190113036","13,2","115,68","580,1","4,9","89,7","161,113","12,5","9,4","5169,45422",438172,"2,3","32,75593","126,9","0,326071","615,6","103,05","148,4","144,1439","7,1","1046,7",8152,"101,36","529,70697"
2013-03-31,12156,1364,"105,0416","6,6","724,81398","11,3","42,1","81,108537645","13,2","110,27","570,8","4,8","92,63","161,97752","12,5","9,5","5303,94652",440013,"2,4","34,26381",127,"0,306936","638,8","108,07",123,"153,52257","7,1","1041,4",8199,"104,72","540,50979"
2013-04-30,10616,"1348,4","107,0826","6,7","702,48835","11,1","40,9","64,7228581","13,3","107,53","570,7","4,8","95,22","156,36165","12,6","9,5","5144,26621",440167,"2,4","32,40075","126,4","0,264167",501,"99,91","94,2","149,57026","7,1","1028,4",7312,"95,91","515,38197"
2013-05-31,9709,"1466,3","105,589","6,7","775,47429","10,9","40,3","55,261871613","13,3","103,41","576,3","5,4","97,2","169,31112","12,7",10,"4725,19381",443455,"2,5","29,73447","125,8","0,239451","364,7","96,37",69,"167,18816","7,2","889,2",7870,"97,55","495,83661"
2013-06-30,10482,"1513,4","105,4757","6,8","815,45","10,9","45,8","56,745320833","13,5","100,69","581,7","5,5","97,9","196,89325","12,7","11,1","4575,75697",450716,"2,5","25,63757","128,4","0,2673","361,7","95,35",58,"199,19481","7,8","873,7",7840,"95,1","468,59587"
2013-07-31,12956,"1598,5","97,9551","6,5","859,0217","12,1","47,2","61,663470774","13,5","99,51","585,4","6,1","99,92","211,11991","12,8",12,"4711,55786",451014,"2,5","27,59298","128,9","0,273968","376,5","96,13","89,3","194,27226",8,"868,5",8042,"93,42","480,33707"
2013-08-31,10462,"1559,6","96,6965","6,2","846,01903","12,3",47,"61,551768194","13,5","98,04","600,6","5,9","99,77","213,31786",13,"12,7","4536,40642",447532,"2,4","27,09071",129,"0,271904","386,9","95,82","102,2","202,171","7,8","869,7",8382,"90,84","503,0162"
2013-09-30,10722,"1345,6","91,5288","6,3","789,6327","12,1","43,8","58,935705033","13,5","98,39","603,1",6,"99,04","210,31269","12,9","13,2","4498,75712",441309,"2,4","27,21689","128,4","0,3709","476,1",97,"107,9","185,29764","7,2","866,5",7843,"92,96","487,79956"
2013-10-31,14438,"1346,4","93,2069","6,6","780,3431","11,8","40,8","61,871319935","13,7","98,93","615,7","5,1","97,27","194,30229","12,9","12,9","4496,1707",444303,"2,4","29,63682","131,3","0,400645","636,6","97,06","108,6","166,88241","7,3","877,4",8039,"94,84","504,66318"
2013-11-30,12588,"1328,4","93,2532","6,7","749,84721","11,7","40,1","78,508353","14,3","101,34","665,3",5,"91,57","167,38553","13,5","10,9","4880,53839",444122,"2,3","32,97147",140,"0,4351","591,3","97,59","122,6","150,74188","7,2","903,6",10343,"97,31","526,26297"
2013-12-31,16008,1316,"95,3887","6,6","696,75649","11,8","42,2","95,09881971","14,5","107,89","684,4",5,"90,18","166,20736","13,8","9,8","5685,56185",440833,"2,3","41,67692","143,1","0,439645",746,"98,61","177,7","150,24399","7,3","923,1",12912,"98,57","602,36499"
2014-01-31,12511,"1302,7","98,0665","6,6","790,83657","12,1","42,1","104,10381116","13,4","107,65","613,1","4,7","87,15","172,18888","12,9","9,6","5519,40832",438228,"2,3","40,15477","130,2","0,392032","741,3",99,"178,3","170,76301","7,1","1003,6",7885,"101,4","601,22718"
2014-02-28,12462,"1325,4","100,5824","6,6","705,79539","11,9","42,4","98,946986821","13,2","111,73","588,8","4,7","89,17","173,44314","12,8","9,7","4977,83305",441071,"2,3","32,54128","126,3","0,386036","756,9","101,45","127,4","152,48942","7,1","1069,1",7865,"103,53","531,57257"
2014-03-31,10589,"1324,3","102,8692","6,6","780,1318","11,7",43,"83,468186",13,"103,33","591,9","4,9","91,76","166,88743","12,7","9,5","5840,02955",443155,"2,4","34,91431","126,7","0,340581","622,2","99,84","90,5","170,13335","7,2",1058,8190,"107,95","551,97612"
2014-04-30,11646,"1341,7","104,2502","6,7","743,2548","11,5",42,"65,8619262","13,2","102,9","593,6","4,9","99,7","174,00267","12,8","10,1","4623,33479",443980,"2,5","29,00316","127,7","0,2825","444,4","98,23","55,2","156,23926","7,1","1043,5",7256,"102,06","493,14285"
2014-05-31,8893,"1491,8","103,8195","6,8","809,41913","11,2","41,5","57,553696871","13,2","100,93","598,2","5,1","98,12","183,64493","12,9","10,4","4929,60161",446543,"2,5","28,97133","127,4","0,271291","418,6","97,72","67,6","178,13317","7,4",901,7745,"100,67","470,94323"
2014-06-30,10317,"1553,8","103,5438","6,9","860,02134","11,2","46,3","57,647758833","13,4","98,8","598,5","5,6","98,06","202,6223","12,9","11,6","4910,17569",453872,"2,4","28,9756","128,9","0,274266","412,6","95,16","67,3","204,63098","7,8","890,4",7654,"95,71","462,41728"
2014-07-31,13259,"1613,5","99,6402","6,7","866,181","12,3","47,9","61,380931129","13,7","98,04","596,3","6,1","99,83","216,78455","12,8","12,6","5020,38975",454563,"2,3","29,94556","129,4","0,265516","405,5","94,36","77,4","210,03128","8,3","890,2",7937,"92,54","475,16565"
2014-08-31,9144,"1571,3","94,8807","6,3","913,58398","12,4","47,6","63,181520806","13,8","98,24","607,9","6,5","102,03","212,06645",13,"12,9","4557,72549",450984,"2,2","29,22264","129,6","0,28","387,8","92,95","82,6","208,40173","8,1","889,2",8220,"91,73","484,64498"
2014-09-30,11321,"1376,8","94,4131","6,5","804,14903","12,2","44,6","60,911871767","13,7","98,26","616,2","6,4","102,36","206,19017",13,"13,1","4636,59001",444851,"2,2","28,95632","129,7","0,369133","506,6","95,4","92,5","190,32299","7,4","879,1",8254,"98,11","484,49879"
2014-10-31,14724,"1364,2","95,2681","6,7","806,10226","11,9",42,"63,478780258","13,9","99,89","632,2","5,7","99,31","189,31961","13,2","12,6","4428,35444",448030,"2,2","33,35969","132,6","0,418226","519,5","95,5","82,1","165,77287","7,4","893,1",8162,"97,2","504,28877"
2014-11-30,13005,"1355,3","96,7152","6,8","777,68656","11,7","40,8","81,971976367","14,5","102,08","686,4","5,2","92,49","165,5228","13,9","10,9","5119,15333",447407,"2,2","36,02361","140,9","0,503167","615,4","97,13","104,8","159,01171","7,5","907,3",10794,"98,04","529,62706"
2014-12-31,15295,"1345,6","98,3749","6,7","711,34198","11,7","43,5","86,656686387","14,8","103,79","702,5","5,2","91,72","166,53695","14,2","10,2","5557,31116",445014,"2,1","38,99944","143,6","0,512452","712,8","98,34","125,5","164,95703","7,4","957,6",13556,"99,86","575,30753"
2015-01-31,11748,"1307,1","99,6029","6,7","750,08426","11,9","43,1","101,84713658","13,6","106,85","629,8","5,1","86,1","172,51509","13,2","9,9","5501,10745",441094,"2,2","41,79263",130,"0,458355","655,7","98,98","121,8","156,47829","7,2","1033,7",8079,"100,7","581,79087"
2015-02-28,9493,"1317,7","102,0622","6,8","764,46734","11,8","43,4","104,91555193","13,5","113,23","610,9","5,2","87,95","164,43194",13,"10,1","5090,42313",444033,"2,3","37,1062","125,7","0,4055","582,5","103,36","91,6","151,24383","7,2","1090,3",7782,"102,42","548,10099"
2015-03-31,10462,"1324,4","105,5808","6,9","707,98096","11,6",44,"83,783503065","13,7","103,26","609,3","5,1","91,62","166,7795","13,1","10,2","5348,52822",446569,"2,4","35,67884","126,3","0,32529","645,7","105,69",78,"154,65972","7,2","1084,6",7976,"104,84","536,69668"
2015-04-30,10435,"1337,9","106,5821",7,"748,93261","11,2","42,6","66,886441567","13,9","98,77","608,6","5,2","99,77","160,90871","13,1","10,5","4377,88682",447335,"2,4","31,37912","127,2","0,270533","652,3","101,78","67,3","154,97174","7,2","1064,9",7236,"105,58","497,61053"
2015-05-31,10410,"1462,9","105,3518","6,9","819,73098","10,8","42,2","60,186912581",14,"97,89","606,2","5,7","101,62","175,85403","13,1","10,5","4048,61769",450407,"2,5","29,46695","128,5","0,254967","445,4","102,43","66,5","176,2552","7,4","915,1",7756,"101,66","472,21436"
2015-06-30,11418,"1496,7","104,794","7,1","807,64227","10,9","47,1","64,046372767","14,2","94,7","603,5","5,8","105,44","186,04638","13,2","12,2","4341,71386",457579,"2,5","28,39682","129,8","0,278734","472,7","98,17","61,6","200,58214","7,8","907,8",8099,"100,67","457,99089"
2015-07-31,12886,"1577,6","101,2756","6,9","909,82019","11,7","48,8","67,29919471","14,3","95,13","607,6","6,7","111,57","202,77066","13,1","12,9","4641,96488",457795,"2,4","29,93067","130,3","0,279548","365,2","97,29","58,5","203,98248","8,2","904,8",8027,"95,53","474,12719"
2015-08-31,11215,"1544,6","97,1144","6,5","883,12261","11,8","48,5","66,432635161","14,3","95,29",608,7,"121,3","221,46473","13,2","13,4","4548,5167",453518,"2,4","29,73663","130,8","0,293903","347,1","97,52",68,"197,90226",8,"907,9",8218,"95,61","490,50291"
2015-09-30,13264,"1353,4","95,203","6,7","808,13525","11,6","45,6","63,755244733","14,2","96,19","610,1","6,7","106,12","207,18833","13,2","13,3","4693,67408",446894,"2,4","30,01558","131,4","0,386033","470,7","97,9","75,4","184,79999","7,3","897,3",8163,"95,23","482,17441"
2015-10-31,14965,"1362,1","95,5194",7,"778,0139","11,2","43,1","65,614078742","14,6","97,97","617,9",6,"101,18","186,03886","13,2","13,1","4517,59729",450247,"2,4","33,15115","134,5","0,444","515,7","98,32","90,8","157,74065","7,4","913,7",8006,"95,18","503,62391"
2015-11-30,13736,"1324,1","96,778",7,"725,02236","11,1","41,8","76,675239067","15,1","99,35","679,7","5,5","93,78","166,2848","13,7","11,7","5104,84496",449672,"2,4","36,45192","141,8","0,537567","644,4","99,36","115,1","140,9776","7,4","933,2",10171,"100,54","526,41759"
2015-12-31,17679,"1311,7","99,4321",7,"718,28611","11,1","44,3","84,940463548","15,2","101,37","687,2","5,5","93,55","155,59506","13,7","10,6","5651,65957",447756,"2,4","42,16299","142,5","0,515451","798,5","99,22","161,9","141,72234","7,3","968,7",12595,"102,04","587,95367"
2016-01-31,12771,"1280,2","98,4771","6,9","725,09539","11,2",44,"101,23394019","14,1","101,53","627,6",5,"91,36","162,3988","12,9","10,3","5451,54376",443304,"2,5","42,16299","132,4","0,515161","773,6","100,04","202,6","146,96696","7,2","1052,2",7465,"103,04","577,08262"
2016-02-29,12256,"1289,5","101,901","6,9","681,26369","11,1","44,2","92,133052759","14,2","108,33","610,2",5,"95,23","154,03522","12,7","10,6","5247,03156",446487,"2,5","42,16299","127,6","0,431862","694,6","102,81","154,6","137,08195","7,3","1096,4",7711,"104,85","534,7513"
2016-03-31,12396,"1312,1","106,2401","7,1","672,72547","10,9","44,6","77,290820548","14,4","102,97","610,1","4,9","101,36","162,88816","12,7","10,3","6057,15196",448353,"2,6","42,16299","127,4","0,347097","700,2","105,26","99,3","144,27221","7,3","1083,2",7833,"109,67","526,8198"
2016-04-30,13711,"1306,6","108,0703","7,1","723,34347","10,6","43,4","70,426707133","14,8","101,61","603,8","5,1","102,01","158,4512","12,8","10,6","5161,72211",449261,"2,8","42,16299","129,4","0,311767","537,9","99,94","68,8","153,49091","7,3","1064,2",6965,"103,2","480,16147"
2016-05-31,10907,"1422,1","106,1702","7,2","754,44861","10,3","42,6","64,709718194","14,9","99,21","603,6",6,"104,19","166,19241","12,8",11,"4660,66318",451775,"2,7","42,16299","128,8","0,26958",482,"99,82","54,2","167,13882","7,4","930,2",7466,"101,3","468,77657"
2016-06-30,11700,"1470,7","105,7348","7,3","795,99385","10,4","48,1","66,9710409",15,"97,39","601,2","6,1","106,15","181,16286","12,8","11,9","4555,87687",459762,"2,8","42,16299",130,"0,277867","493,1","97,41","62,2","184,15737","7,9","920,5",7623,"100,92","462,12759"
2016-07-31,12883,"1545,9","103,0801",7,"867,54861","11,1","50,2","71,237560645",15,"97,22","603,6","6,7","110,12","201,76613","12,8","12,4","4575,97868",460930,"2,7","42,16299",131,"0,281549","472,5","99,99","72,3","184,62804","8,3","919,5",7655,"99,59","473,04622"
2016-08-31,12728,"1507,2","97,5982","6,7","856,88461","11,3","50,2","69,839986871","15,3","97,19","608,9","6,9","113,28","208,75812","12,9","12,8","4724,65986",457009,"2,5","42,16299","131,4","0,285452","580,1","101,86",92,"184,50634","8,3",918,8122,"99,16","494,17691"
2016-09-30,12665,"1321,9","97,8357","6,9","788,64683",11,"46,8","64,264972833","15,2","98,2","605,1","6,7","109,17","209,33302","12,7","12,9","4927,68812",450563,"2,5","42,16299",130,"0,3933","625,2","102,27",102,"168,77414","7,5",915,7708,"100,55","470,27145"
2016-10-31,16620,"1336,2","99,3099","7,2","746,26038","10,8","44,2","63,133091613","15,5","98,91","612,5","5,7","104,65","191,04738","12,8","12,5","4254,96553",453078,"2,6","42,16299","134,3","0,487065","677,9","101,9","105,1","168,40268","7,7","927,4",7387,"102,28","506,26737"
2016-11-30,16573,"1316,1","98,1591","7,3","708,74436","10,6",43,"73,627241933","16,5","100,03","669,4","5,5","98,01","174,10275","13,3","10,9","4539,95603",452691,"2,6","42,16299","143,2","0,555267","690,9","101,4","102,4","155,19493","7,7","954,8",9677,"105,18","534,24663"
2016-12-31,18115,"1314,2","100,9143","7,2","706,91199","10,5","45,3","94,462714613","16,2","103,35","688,2","5,3","98,56","169,24363","13,4","10,2","6024,77516",449994,"2,6","42,16299","143,8","0,53529","911,3","101,87","183,5","171,60835","7,3","985,6",11988,"104,18","595,4741"
2017-01-31,15355,"1291,3","102,2103","7,1","682,76268","10,7","45,2","93,217145194",15,"103,59","621,1",5,"94,1","146,30182","12,6","9,9","5927,08793",446373,"2,5","48,46683","133,7","0,505355",1048,"103,83","246,6","160,13629","7,2","1057,5",7350,"103,98","607,94994"
2017-02-28,11544,"1262,8","104,1037","7,2","649,2993","10,6","45,3","81,919098714","14,7","114,67","592,6","5,2","97,65","160,64054","12,4","9,9","4904,17042",449201,"2,5","40,2993","128,2","0,436821","882,2","107,16","138,1","150,05601","7,3","1103,8",7078,"108,03","554,64988"
2017-03-31,13688,"1276,2","106,7434","7,3","726,30723","10,4","45,9","80,880884935","14,6","104,29","582,1","5,1","100,66","169,40302","12,5",10,"5183,09426",451562,"2,5","42,77092","126,8","0,347646","803,2","109,05","107,6","169,67141","7,3",1089,7824,"108,85","557,53126"
2017-04-30,11266,"1278,1","109,2292","7,3","711,74993","10,1","45,4","63,905714367","14,7","101,4","581,1","5,3","110,86","165,70836","12,5","10,5","4678,77214",452900,"2,7","35,60989","126,4","0,3177","538,1","104,53","78,9","163,19208","7,3","1081,5",7013,"106,55","504,20996"
2017-05-31,13646,"1441,1","106,7269","7,4","760,83687","9,8","44,2","60,560214806","14,6","99,79","581,3","5,7","109,78","178,00166","12,5","10,7","4913,68582",455458,"2,7","32,03081","125,6","0,292323","540,3","104,37","82,7","176,2499","7,5","943,9",7546,"106,59","471,85127"
2017-06-30,12880,"1473,5","106,8438","7,4","770,58244","9,8","50,4","64,0033139","14,6","99,45",583,"6,2","115,33","202,63788","12,4","12,1","5090,62797",462908,"2,6","30,77568","126,3","0,282833","590,9","101,4","81,5","183,41201","8,1","935,5",7625,"104,22","458,27598"
2017-07-31,17340,"1546,7","103,2018","7,2","831,65574","10,6","51,5","68,819166032","14,8","98,42","587,1","6,8","117,2","215,31704","12,4","12,4","5051,36857",463056,"2,5","32,02106","128,1","0,291097","586,8","102,47","86,2","191,92062","8,6","935,7",7434,"99,89","476,583"
2017-08-31,14407,"1472,2","99,9944","6,8","833,28071","10,7",51,"67,457472452",15,"98,4","592,5",7,"120,56","209,39722","12,6","12,9","4411,06396",459844,"2,4","31,33162","128,8","0,288806","624,9","102,3","83,4","195,24998","8,6","938,3",7824,"99,8","486,01894"
2017-09-30,14217,"1287,5","98,3062","7,1","768,14712","10,4","48,4","63,902754367",15,"98,57","592,4","6,4","116,13","205,4996","12,4","13,1","4357,44899",454086,"2,5","31,02414","127,6","0,4046","575,7","104,45","100,7","178,74004","7,6","929,9",7692,"100,49","473,42921"
2017-10-31,17418,"1321,7","99,0259","7,4","752,12552","10,2","45,9","66,091416839","15,2","102,16","605,2","5,6","110,76","194,79092","12,4","12,7","4400,80324",457090,"2,5","35,03758","131,3","0,422742","714,5","104,11","115,6","169,9209","7,8","938,9",7567,"101,81","494,82459"
2017-11-30,18127,"1314,9","100,4295","7,3","706,28546","9,8","47,3","78,889753733","15,7","103,54","671,4","5,2","101,38","175,50216",13,"10,7","4213,11905",456151,"2,5","40,64061","139,2","0,5319","649,4","104,6","113,6","166,16604","7,8","966,4",10274,"104,71","536,1802"
2017-12-31,18572,"1301,4","102,411","7,3","708,76514","9,8","50,5","100,05091058",16,"106,68","674,4","5,2","102,34","167,1128","12,9","10,2","5384,73018",453465,"2,5","45,7036","141,3","0,550516","803,9","103,01","159,5","165,33079","7,6","979,8",12069,"106,7","573,11581"
2018-01-31,13561,"1267,2","103,3699","7,2","774,63774",10,"50,5","106,52950023","15,3","105,86","597,2",5,"98,22","181,36562","12,3","10,2","5975,45538",453344,"2,5","46,48097","130,7","0,474677","819,8","102,72",152,"169,73561","7,5","1039,9",7680,"109,14","577,93253"
2018-02-28,16015,"1256,8","108,1524","7,4","628,1693","9,8",51,"93,306218076","15,2","111,94",576,5,"102,09","166,36458","12,2","10,4","5491,15404",456659,"2,5","41,24491","126,5","0,4178486","840,9","106,14","142,9","143,75251","7,5","1087,3",7257,"109,91","551,98619"
2018-03-31,15332,"1273,1","110,0945","7,5","628,1693","9,6","51,4","86,368466358","15,2","106,04","569,9",5,"107,06","166,36458","12,2","10,4","5491,15404",457982,"2,5","41,24491","126,1","0,3448922","840,9","108,21","142,9","143,75251","7,5","1087,8",7946,"115,54","551,98619"
